Assignment 9: Visualization - Revealing a graph
…
Hint:

Use filter to select the most current date

Pipe with arrange(-Cumulative_deaths) to rank the data by the number of cumulative deaths

max(df$Date_reported)

## [1] "2021-10-27"

df %>% filter(Date_reported == '2021-10-25') %>% arrange(-Cumulative_deaths)

## # A tibble: 237 x 8
##    Date_reported Country_code Country      WHO_region New_cases Cumulative_cases
##    <date>        <chr>        <chr>        <chr>          <dbl>            <dbl>
##  1 2021-10-25    US           United Stat~ AMRO           27430         45134683
##  2 2021-10-25    BR           Brazil       AMRO           11716         21723559
##  3 2021-10-25    IN           India        SEARO          14306         34189774
##  4 2021-10-25    MX           Mexico       AMRO             522          3783322
##  5 2021-10-25    RU           Russian Fed~ EURO           37930          8279573
##  6 2021-10-25    PE           Peru         AMRO             969          2195101
##  7 2021-10-25    ID           Indonesia    SEARO            460          4240479
##  8 2021-10-25    GB           The United ~ EURO           38740          8773678
##  9 2021-10-25    IT           Italy        EURO            3723          4741185
## 10 2021-10-25    CO           Colombia     AMRO            1660          4989681
## # ... with 227 more rows, and 2 more variables: New_deaths <dbl>,
## #   Cumulative_deaths <dbl>
…
Create the new variable (column) death_per_cases recording the number of deaths per cases (Hint: divide cumulative deaths by cumulative cases). What are the three countries with the highest deaths per cases?

df$death_per_cases = df$Cumulative_deaths / df$Cumulative_cases
df %>% filter(Date_reported == '2021-10-25') %>% arrange(-death_per_cases)

## # A tibble: 237 x 9
##    Date_reported Country_code Country              WHO_region New_cases Cumulative_cases
##    <date>        <chr>        <chr>                <chr>          <dbl>            <dbl>
##  1 2021-10-25    YE           Yemen                EMRO              16             9678
##  2 2021-10-25    PE           Peru                 AMRO             969          2195101
##  3 2021-10-25    MX           Mexico               AMRO             522          3783322
##  4 2021-10-25    SD           Sudan                EMRO               0            40433
##  5 2021-10-25    EC           Ecuador              AMRO             321           515632
##  6 2021-10-25    SY           Syrian Arab Republic EMRO             293            41515
##  7 2021-10-25    EG           Egypt                EMRO             886           324619
##  8 2021-10-25    SO           Somalia              EMRO             729            21998
##  9 2021-10-25    LR           Liberia              AFRO               0             5811
## 10 2021-10-25    AF           Afghanistan          EMRO              45           155985
## # ... with 227 more rows, and 3 more variables: New_deaths <dbl>,
## #   Cumulative_deaths <dbl>, death_per_cases <dbl>
…
