Midterm HTML
…
df18 %>% filter(age %in% c(7,8,9,10,11,12,13,14,15,16,17)) %>% count(diag_adm, sort = TRUE)

## # A tibble: 637 x 2
##    diag_adm     n
##    <chr>    <int>
##  1 F329       286
##  2 F332       221
##  3 R4585      204
##  4 F3481      185
##  5 F4325      164
##  6 F322       107
##  7 J4590       63
##  8 Z5111       58
##  9 F419        56
## 10 F4310       56
## # ... with 627 more rows
…
# looking into the top reasons why older people are admitted into the hospital

df18 %>% filter(age > 60) %>% count(diag_adm, sort = TRUE)

## # A tibble: 2,511 x 2
##    diag_adm     n
##    <chr>    <int>
##  1 R0602     2132
##  2 J189      1930
##  3 I509      1425
##  4 R079      1266
##  5 A419      1223
##  6 R4182     1147
##  7 J441      1087
##  8 R55       1080
##  9 R531      1053
## 10 N390      1023
## # ... with 2,501 more rows

# Look at the age distributions for the top 4 reasons people are admitted into the hospital

df18 %>% count(diag_adm, sort = TRUE)

## # A tibble: 4,021 x 2
##    diag_adm     n
##    <chr>    <int>
##  1 Z3800     6811
##  2 Z3801     3181
##  3 R0602     2839
##  4 J189      2695
##  5 R079      2063
##  6 O471      1938
##  7 F332      1901
##  8 F329      1895
##  9 F1020     1882
## 10 A419      1785
## # ... with 4,011 more rows
…
df18 %>% count(pt_state, sort = TRUE)

## # A tibble: 56 x 2
##    pt_state      n
##    <chr>     <int>
##  1 RI       115954
##  2 MA         8493
##  3 FC         4451
##  4 CT         1690
##  5 FL          196
##  6 NY          155
##  7 NJ           60
##  8 NH           48
##  9 XX           47
## 10 CA           35
## # ... with 46 more rows
…
